[
  {
    "name": "${runner_name}--Download-Configuration",
    "image": "mesosphere/aws-cli",
    "essential": false,
    "memoryReservation": 16,
    "networkMode": "bridge",
    "entryPoint": [
      "/bin/sh",
      "-c"
    ],
    "command": [
      "aws s3 cp s3://${config_bucket}/${runner_name}/config.toml /etc/gitlab-runner/config.toml"
    ],
    "mountPoints": [
      {
        "containerPath": "/etc/gitlab-runner:z",
        "sourceVolume": "runner-config"
      }
    ],
    "logConfiguration": {
      "logDriver": "awslogs",
      "options": {
        "awslogs-group": "${cw_log_group}",
        "awslogs-region": "${region}",
        "awslogs-stream-prefix": "task"
      }
    }
  },
  {
    "name": "${runner_name}--Registration",
    "DependsOn": [
      {
        "ContainerName": "${runner_name}--Download-Configuration",
        "Condition": "COMPLETE"
      }
    ],
    "image": "gitlab/gitlab-runner:alpine",
    "essential": false,
    "memoryReservation": 16,
    "networkMode": "host",
    "entryPoint": [
      "/bin/sh",
      "-c"
    ],
    "command": [
      "gitlab-runner unregister --all-runners; gitlab-runner verify --delete; (cat /dev/null > /etc/gitlab-runner/config.toml); gitlab-runner register --name \"${runner_name} - ${cluster} - $(wget -q -O - http://169.254.169.254/latest/meta-data/instance-id)\" --env=\"DOCKER_AUTH_CONFIG={\\\"credsStore\\\":\\\"ecr-login\\\"}\" --env=\"RUNNER_REGION=${region}\" --machine-machine-options \"amazonec2-security-group=${security_group}\" --machine-machine-options \"amazonec2-security-group-readonly=true\" --machine-machine-options \"amazonec2-tags=Name,CustodianRunner,gitlab,true,ephemeral,true\" --machine-machine-options \"amazonec2-private-address-only=true\" --machine-machine-options \"amazonec2-request-spot-instance=false\" --machine-machine-options \"amazonec2-spot-price=\" && /bin/sed -i 's/concurrent =.*/concurrent = ${concurrent}/g' /etc/gitlab-runner/config.toml && /bin/sed -i 's/session_timeout =.*/session_timeout = 1800\\\n  listen_address=\"0.0.0.0:${session_port}\"\\\n  advertise_address=\"REPLACEME:${session_port}\"/g' /etc/gitlab-runner/config.toml && sed -i \"s~REPLACEME~$(wget -q -O - http://169.254.169.254/latest/meta-data/local-ipv4)~g\" /etc/gitlab-runner/config.toml"
    ],
    "environment" : [
      { "name": "CI_SERVER_URL", "value" : "https://git.devops.broadridge.net" },
      { "name": "RUNNER_TAG_LIST", "value": "${tag_list}" },
      { "name": "RUNNER_EXECUTOR", "value": "docker+machine" },
      { "name": "DOCKER_IMAGE", "value": "${docker_image}" },
      { "name": "DOCKER_ALLOWED_IMAGES", "value": "${allowed_images}" },
      { "name": "DOCKER_ALLOWED_SERVICES", "value": "" },
      { "name": "REGISTRATION_TOKEN", "value": "${registration_token}" },
      { "name": "REGISTER_NON_INTERACTIVE", "value": "true" },
      { "name": "CACHE_TYPE", "value": "s3" },
      { "name": "CACHE_SHARED", "value": "true" },
      { "name": "CACHE_PATH", "value": "${runner_name}/cache" },
      { "name": "CACHE_S3_BUCKET_NAME", "value": "${config_bucket}" },
      { "name": "CACHE_S3_BUCKET_LOCATION", "value": "${region}" },
      { "name": "MACHINE_NAME", "value": "c7n-runner-%s" },
      { "name": "MACHINE_DRIVER", "value": "amazonec2" },
      { "name": "MACHINE_IDLE_TIME", "value": "300" }
    ],
    "mountPoints": [
      {
        "containerPath": "/etc/gitlab-runner:z",
        "sourceVolume": "runner-config"
      }
    ],
    "logConfiguration": {
      "logDriver": "awslogs",
      "options": {
        "awslogs-group": "${cw_log_group}",
        "awslogs-region": "${region}",
        "awslogs-stream-prefix": "task"
      }
    }
  },
  {
    "name": "${runner_name}--Upload-Configuration",
    "DependsOn": [
      {
        "ContainerName": "${runner_name}--Registration",
        "Condition": "SUCCESS"
      }
    ],
    "image": "mesosphere/aws-cli",
    "essential": false,
    "memoryReservation": 16,
    "networkMode": "bridge",
    "entryPoint": [
      "/bin/sh",
      "-c"
    ],
    "command": [
      "aws s3 cp /etc/gitlab-runner/config.toml s3://${config_bucket}/${runner_name}/config.toml"
    ],
    "mountPoints": [
      {
        "containerPath": "/etc/gitlab-runner:z",
        "sourceVolume": "runner-config"
      }
    ],
    "logConfiguration": {
      "logDriver": "awslogs",
      "options": {
        "awslogs-group": "${cw_log_group}",
        "awslogs-region": "${region}",
        "awslogs-stream-prefix": "task"
      }
    }
  },
  {
    "name": "${runner_name}",
    "DependsOn": [
      {
        "ContainerName": "${runner_name}--Registration",
        "Condition": "SUCCESS"
      }
    ],
    "image": "gitlab/gitlab-runner:latest",
    "essential": true,
    "memoryReservation": ${memoryReservation},
    "networkMode": "bridge",
    "entryPoint": [
      "/bin/sh",
      "-c"
    ],
    "command": [
      "gitlab-runner run"
    ],
    "environment" : [
      { "name": "AWS_SDK_LOAD_CONFIG", "value":"true"},
      { "name": "AWS_DEFAULT_REGION", "value":"${region}"},
      { "name": "DOCKER_AUTH_CONFIG", "value":"{\\\"credsStore\\\":\\\"ecr-login\\\"}"},
      { "name": "DOCKER_DISABLE_ENTRYPOINT_OVERWRITE", "value": "false" },
      { "name": "AWS_INSTANCE_TYPE", "value": "${instance_type}" },
      { "name": "AWS_INSTANCE_PROFILE", "value": "${instance_profile}" },
      { "name": "AWS_AMI", "value": "${aws_ami}" },
      { "name": "AWS_SSH_USER", "value": "${aws_ssh_user}" },
      { "name": "AWS_VPC_ID", "value": "${vpc}" },
      { "name": "AWS_SUBNET_ID", "value": "${subnet}" },
      { "name": "AWS_ZONE", "value": "${aws_zone}" },
      { "name": "MACHINE_STORAGE_PATH", "value": "/home/gitlab-runner/.docker/machine" }
    ],
    "healthCheck": {
      "retries": 3,
      "startPeriod": 15,
      "timeout": 30,
      "interval": 30,
      "command": [
        "/bin/sh",
        "-c",
        "gitlab-runner verify && test -s /etc/gitlab-runner/config.toml"
      ]
    },
    "mountPoints": [
      {
        "containerPath": "/etc/gitlab-runner:z",
        "sourceVolume": "runner-config"
      },
      {
        "containerPath": "/home/gitlab-runner:z",
        "sourceVolume": "runner-data"
      }
    ],
    "dockerLabels": {
      "gitlab.runner": "true",
      "gitlab.tag-list": "${tag_list}",
      "SERVICE_NAME": "${runner_name}",
      "SERVICE_TYPE": "gitlab-runner",
      "SERVICE_REGION": "${region}",
      "SERVICE_TAGS": "gitlab-runner,${tag_list}"
    },
    "logConfiguration": {
      "logDriver": "awslogs",
      "options": {
        "awslogs-group": "${cw_log_group}",
        "awslogs-region": "${region}",
        "awslogs-stream-prefix": "task"
      }
    },
    "portMappings": [
      {
        "containerPort": ${session_port},
        "hostPort": ${session_port}
      }
    ]
  }
]
